synchronous fifo/dump.vcd
$date
	Wed May 13 08:41:06 2026
$end

$version
	Synopsys VCS version X-2025.06-SP1_Full64
$end

$timescale
	1ns
$end

$comment Csum: 1 abd2354cf8e4f65c $end


$scope module sync_fifo_TB $end
$var reg 1 ! clk $end
$var reg 1 " rst_n $end
$var reg 1 # w_en $end
$var reg 1 $ r_en $end
$var reg 8 % data_in [7:0] $end
$var wire 8 & data_out [7:0] $end
$var wire 1 ' full $end
$var wire 1 ( empty $end
$var reg 8 ) wdata [7:0] $end

$scope begin unnamed$$_vcs_3 $end
$upscope $end


$scope begin unnamed$$_vcs_0 $end
$upscope $end


$scope begin unnamed$$_vcs_1 $end

$scope begin unnamed$$_0 $end
$upscope $end

$upscope $end


$scope begin unnamed$$_vcs_2 $end

$scope begin unnamed$$_1 $end
$upscope $end

$upscope $end


$scope module s_fifo $end
$var wire 1 ! clk $end
$var wire 1 " rst_n $end
$var wire 1 # w_en $end
$var wire 1 $ r_en $end
$var wire 8 % data_in [7:0] $end
$var reg 8 & data_out [7:0] $end
$var wire 1 ' full $end
$var wire 1 ( empty $end
$var reg 3 * w_ptr [2:0] $end
$var reg 3 + r_ptr [2:0] $end
$upscope $end

$upscope $end


$scope module uvm_pkg $end
$var time 64 , setting_offset $end
$var reg 32 - uvm_global_random_seed [31:0] $end
$var reg 32 . UVM_UNBOUNDED_CONNECTIONS [31:0] $end
$var reg 32 / setting_verbosity [31:0] $end
$var reg 1 0 is_verdi_set_verbosity_called $end
$var reg 32 1 m_uvm_core_state [31:0] $end
$upscope $end

$enddefinitions $end

#0
$dumpvars
00
b11111111111111111111111111111111 .
b00000000000000000000000000000011 1
b00000000000000000000000000000000 /
b01000010000001111100110001000111 -
0!
x(
x'
0$
0"
0#
b00000000 %
bxxx +
bxxxxxxxx &
bxxx *
bxxxxxxxx )
bxxxxxxxxxxxxxxxxxxxxxxxxxxxxxxxxxxxxxxxxxxxxxxxxxxxxxxxxxxxxxxxx ,
$end
#5
1!
b000 *
0'
1(
b000 +
b00000000 &
#10
0!
#15
1!
#20
0!
#25
1!
#30
0!
#35
1!
#40
0!
#45
1!
#50
0!
#55
1!
#60
0!
#65
1!
#70
0!
#75
1!
#80
0!
#85
1!
#90
0!
#95
1!
1"
#100
0!
#105
1!
1#
b00010011 %
b001 *
0(
#110
0!
#115
1!
0#
#120
0!
#125
1!
1#
b01110000 %
b010 *
#130
0!
#135
1!
0#
#140
0!
#145
1!
1#
b11111101 %
b011 *
#150
0!
#155
1!
0#
#160
0!
#165
1!
1#
b11100010 %
b100 *
#170
0!
#175
1!
0#
#180
0!
#185
1!
1#
b10010111 %
b101 *
#190
0!
#195
1!
0#
#200
0!
#205
1!
1#
b11110001 %
1$
b110 *
b00010011 &
b001 +
#206
b00010011 )
#210
0!
#215
1!
0#
0$
#220
0!
#225
1!
1#
b11000101 %
1$
b111 *
b01110000 &
b010 +
#226
b01110000 )
#230
0!
#235
1!
0#
0$
#240
0!
#245
1!
1#
b11101100 %
1$
b000 *
b11111101 &
b011 +
#246
b11111101 )
#250
0!
#255
1!
0#
0$
#260
0!
#265
1!
1#
b01001000 %
1$
b001 *
b11100010 &
b100 +
#266
b11100010 )
#270
0!
#275
1!
0#
0$
#280
0!
#285
1!
1#
b00001100 %
1$
b010 *
b10010111 &
b101 +
#286
b10010111 )
#290
0!
#295
1!
0#
0$
#300
0!
#305
1!
1#
b00101100 %
1$
b011 *
b11110001 &
b110 +
#306
b11110001 )
#310
0!
#315
1!
0#
0$
#320
0!
#325
1!
1#
b01101011 %
1$
b100 *
b11000101 &
b111 +
#326
b11000101 )
#330
0!
#335
1!
0#
0$
#340
0!
#345
1!
1#
b00011011 %
1$
b101 *
b11101100 &
b000 +
#346
b11101100 )
#350
0!
#355
1!
0#
0$
#360
0!
#365
1!
1#
b01000101 %
1$
b110 *
b01001000 &
b001 +
#366
b01001000 )
#370
0!
#375
1!
0#
0$
#380
0!
#385
1!
1#
b11110100 %
1$
b111 *
b00001100 &
b010 +
#386
b00001100 )
#390
0!
#395
1!
0#
0$
#400
0!
#405
1!
1$
b00101100 &
b011 +
#406
b00101100 )
#410
0!
#415
1!
0$
#420
0!
#425
1!
1$
b01101011 &
b100 +
#426
b01101011 )
#430
0!
#435
1!
0$
#440
0!
#445
1!
1#
b01101100 %
1$
b000 *
b00011011 &
b101 +
#446
b00011011 )
#450
0!
#455
1!
0#
0$
#460
0!
#465
1!
1#
b01100111 %
1$
b001 *
b01000101 &
b110 +
#466
b01000101 )
#470
0!
#475
1!
0#
0$
#480
0!
#485
1!
1#
b10001100 %
1$
b010 *
b11110100 &
b111 +
#486
b11110100 )
#490
0!
#495
1!
0#
0$
#500
0!
#505
1!
1#
b01001010 %
b011 *
#510
0!
#515
1!
0#
#520
0!
#525
1!
1#
b10100110 %
b100 *
#530
0!
#535
1!
0#
#540
0!
#545
1!
1#
b10100011 %
1$
b101 *
b01101100 &
b000 +
#546
b01101100 )
#550
0!
#555
1!
0#
0$
#560
0!
#565
1!
1#
b10011101 %
1$
b110 *
b01100111 &
b001 +
#566
b01100111 )
#570
0!
#575
1!
0#
0$
#580
0!
#585
1!
1#
b01111100 %
1$
b111 *
b10001100 &
b010 +
#586
b10001100 )
#590
0!
#595
1!
0#
0$
#600
0!
#605
1!
1#
b10111000 %
1$
b000 *
b01001010 &
b011 +
#606
b01001010 )
#610
0!
#615
1!
0#
0$
#620
0!
#625
1!
1#
b11101011 %
1$
b001 *
b10100110 &
b100 +
#626
b10100110 )
#630
0!
#635
1!
0#
0$
#640
0!
#645
1!
1#
b01011011 %
1$
b010 *
b10100011 &
b101 +
#646
b10100011 )
#650
0!
#655
1!
0#
0$
#660
0!
#665
1!
1#
b11110011 %
1$
b011 *
b10011101 &
b110 +
#666
b10011101 )
#670
0!
#675
1!
0#
0$
#680
0!
#685
1!
1#
b01001101 %
1$
b100 *
b01111100 &
b111 +
#686
b01111100 )
#690
0!
#695
1!
0#
0$
#700
0!
#705
1!
1#
b01011100 %
1$
b101 *
b10111000 &
b000 +
#706
b10111000 )
#710
0!
#715
1!
0#
0$
#720
0!
#725
1!
1#
b11110110 %
1$
b110 *
b11101011 &
b001 +
#726
b11101011 )
#730
0!
#735
1!
0#
0$
#740
0!
#745
1!
1$
b01011011 &
b010 +
#746
b01011011 )
#750
0!
#755
1!
0$
#760
0!
#765
1!
1$
b11110011 &
b011 +
#766
b11110011 )
#770
0!
#775
1!
0$
#780
0!
#785
1!
1$
b01001101 &
b100 +
#786
b01001101 )
#790
0!
#795
1!
0$
#800
0!
#805
1!
1$
b01011100 &
b101 +
#806
b01011100 )
#810
0!
#815
1!
0$
#820
0!
#825
1!
1$
b11110110 &
b110 +
1(
#826
b11110110 )
#830
0!
#835
1!
0$
